%YAML 1.1
%TAG !u! tag:unity3d.com,2011:
--- !u!1 &102808
GameObject:
  m_ObjectHideFlags: 0
  m_PrefabParentObject: {fileID: 0}
  m_PrefabInternal: {fileID: 100100000}
  serializedVersion: 4
  m_Component:
  - 4: {fileID: 497998}
  - 33: {fileID: 3310866}
  - 23: {fileID: 2388838}
  - 114: {fileID: 11453320}
  m_Layer: 0
  m_Name: Random_Table_01
  m_TagString: Untagged
  m_Icon: {fileID: 0}
  m_NavMeshLayer: 0
  m_StaticEditorFlags: 81
  m_IsActive: 1
--- !u!4 &497998
Transform:
  m_ObjectHideFlags: 1
  m_PrefabParentObject: {fileID: 0}
  m_PrefabInternal: {fileID: 100100000}
  m_GameObject: {fileID: 102808}
  m_LocalRotation: {x: 0, y: -0, z: -0, w: 1}
  m_LocalPosition: {x: 0, y: 0, z: 0}
  m_LocalScale: {x: 1, y: 1, z: 1}
  m_LocalEulerAnglesHint: {x: 0, y: 0, z: 0}
  m_Children: []
  m_Father: {fileID: 0}
  m_RootOrder: 0
--- !u!23 &2388838
MeshRenderer:
  m_ObjectHideFlags: 1
  m_PrefabParentObject: {fileID: 0}
  m_PrefabInternal: {fileID: 100100000}
  m_GameObject: {fileID: 102808}
  m_Enabled: 1
  m_CastShadows: 1
  m_ReceiveShadows: 1
  m_MotionVectors: 1
  m_LightProbeUsage: 0
  m_ReflectionProbeUsage: 1
  m_Materials:
  - {fileID: 10303, guid: 0000000000000000f000000000000000, type: 0}
  m_SubsetIndices: 
  m_StaticBatchRoot: {fileID: 0}
  m_ProbeAnchor: {fileID: 0}
  m_LightProbeVolumeOverride: {fileID: 0}
  m_ScaleInLightmap: 1
  m_PreserveUVs: 0
  m_IgnoreNormalsForChartDetection: 0
  m_ImportantGI: 0
  m_SelectedWireframeHidden: 0
  m_MinimumChartSize: 4
  m_AutoUVMaxDistance: 0.5
  m_AutoUVMaxAngle: 89
  m_LightmapParameters: {fileID: 0}
  m_SortingLayerID: 0
  m_SortingOrder: 0
--- !u!33 &3310866
MeshFilter:
  m_ObjectHideFlags: 1
  m_PrefabParentObject: {fileID: 0}
  m_PrefabInternal: {fileID: 100100000}
  m_GameObject: {fileID: 102808}
  m_Mesh: {fileID: 4300000, guid: 10e00a9c62f30d84893546326ba54ac2, type: 3}
--- !u!114 &11453320
MonoBehaviour:
  m_ObjectHideFlags: 1
  m_PrefabParentObject: {fileID: 0}
  m_PrefabInternal: {fileID: 100100000}
  m_GameObject: {fileID: 102808}
  m_Enabled: 1
  m_EditorHideFlags: 0
  m_Script: {fileID: 11500000, guid: 93c16a0f6824b7e49813962c53ae2e9c, type: 3}
  m_Name: 
  m_EditorClassIdentifier: 
  Props:
    Weights:
    - Value: {fileID: 130168, guid: 4b17edf9552fa9148843a3977668241f, type: 2}
      MainPathWeight: 1
      BranchPathWeight: 1
      UseDepthScale: 1
      DepthWeightScale:
        m_Curve:
        - time: 0
          value: 1
          inSlope: 0
          outSlope: 0
          tangentMode: 0
        - time: 1
          value: 1
          inSlope: 0
          outSlope: 0
          tangentMode: 0
        m_PreInfinity: 2
        m_PostInfinity: 2
        m_RotationOrder: 4
      TileSet: {fileID: 0}
    - Value: {fileID: 169384, guid: 26c26502f5bfa0d4cb3616e6363eea36, type: 2}
      MainPathWeight: 1
      BranchPathWeight: 1
      UseDepthScale: 1
      DepthWeightScale:
        m_Curve:
        - time: 0
          value: 1
          inSlope: 0
          outSlope: 0
          tangentMode: 0
        - time: 1
          value: 1
          inSlope: 0
          outSlope: 0
          tangentMode: 0
        m_PreInfinity: 2
        m_PostInfinity: 2
        m_RotationOrder: 4
      TileSet: {fileID: 0}
    - Value: {fileID: 114742, guid: 59f42b9269b51ac409ff0075f274e0ac, type: 2}
      MainPathWeight: 1
      BranchPathWeight: 1
      UseDepthScale: 1
      DepthWeightScale:
        m_Curve:
        - time: 0
          value: 1
          inSlope: 0
          outSlope: 0
          tangentMode: 0
        - time: 1
          value: 1
          inSlope: 0
          outSlope: 0
          tangentMode: 0
        m_PreInfinity: 2
        m_PostInfinity: 2
        m_RotationOrder: 4
      TileSet: {fileID: 0}
    - Value: {fileID: 108694, guid: 94c3109e80be4d04fb74c31456b51504, type: 2}
      MainPathWeight: 1
      BranchPathWeight: 1
      UseDepthScale: 1
      DepthWeightScale:
        m_Curve:
        - time: 0
          value: 1
          inSlope: 0
          outSlope: 0
          tangentMode: 0
        - time: 1
          value: 1
          inSlope: 0
          outSlope: 0
          tangentMode: 0
        m_PreInfinity: 2
        m_PostInfinity: 2
        m_RotationOrder: 4
      TileSet: {fileID: 0}
    - Value: {fileID: 141524, guid: 8615aadfa15f31e4c9b56dadf6c0dd63, type: 2}
      MainPathWeight: 1
      BranchPathWeight: 1
      UseDepthScale: 1
      DepthWeightScale:
        m_Curve:
        - time: 0
          value: 1
          inSlope: 0
          outSlope: 0
          tangentMode: 0
        - time: 1
          value: 1
          inSlope: 0
          outSlope: 0
          tangentMode: 0
        m_PreInfinity: 2
        m_PostInfinity: 2
        m_RotationOrder: 4
      TileSet: {fileID: 0}
    - Value: {fileID: 164848, guid: 564e3040400866f4ba656a3e67bcde21, type: 2}
      MainPathWeight: 1
      BranchPathWeight: 1
      UseDepthScale: 1
      DepthWeightScale:
        m_Curve:
        - time: 0
          value: 1
          inSlope: 0
          outSlope: 0
          tangentMode: 0
        - time: 1
          value: 1
          inSlope: 0
          outSlope: 0
          tangentMode: 0
        m_PreInfinity: 2
        m_PostInfinity: 2
        m_RotationOrder: 4
      TileSet: {fileID: 0}
    - Value: {fileID: 159074, guid: 303abeecea8a419449f0e26e8a7bf8af, type: 2}
      MainPathWeight: 1
      BranchPathWeight: 1
      UseDepthScale: 1
      DepthWeightScale:
        m_Curve:
        - time: 0
          value: 1
          inSlope: 0
          outSlope: 0
          tangentMode: 0
        - time: 1
          value: 1
          inSlope: 0
          outSlope: 0
          tangentMode: 0
        m_PreInfinity: 2
        m_PostInfinity: 2
        m_RotationOrder: 4
      TileSet: {fileID: 0}
  ZeroPosition: 1
  ZeroRotation: 1
--- !u!1001 &100100000
Prefab:
  m_ObjectHideFlags: 1
  serializedVersion: 2
  m_Modification:
    m_TransformParent: {fileID: 0}
    m_Modifications: []
    m_RemovedComponents: []
  m_ParentPrefab: {fileID: 0}
  m_RootGameObject: {fileID: 102808}
  m_IsPrefabParent: 1
