%YAML 1.1
%TAG !u! tag:unity3d.com,2011:
--- !u!74 &7400000
AnimationClip:
  m_ObjectHideFlags: 0
  m_PrefabParentObject: {fileID: 0}
  m_PrefabInternal: {fileID: 0}
  m_Name: Light_Intensity
  serializedVersion: 6
  m_Legacy: 0
  m_Compressed: 0
  m_UseHighQualityCurve: 1
  m_RotationCurves: []
  m_CompressedRotationCurves: []
  m_EulerCurves: []
  m_PositionCurves: []
  m_ScaleCurves: []
  m_FloatCurves:
  - curve:
      serializedVersion: 2
      m_Curve:
      - time: 0
        value: 7.2965903
        inSlope: 0
        outSlope: 0
        tangentMode: 0
      - time: 0.18333334
        value: 7.6953325
        inSlope: 11.798784
        outSlope: -7.213303
        tangentMode: 1
      - time: 0.5
        value: 7.272959
        inSlope: 2.6768968
        outSlope: -2.9295917
        tangentMode: 1
      - time: 0.9
        value: 7.121967
        inSlope: 5.7084
        outSlope: -4.9804864
        tangentMode: 1
      - time: 1.2333333
        value: 7.500719
        inSlope: 2.948224
        outSlope: -9.027265
        tangentMode: 1
      - time: 1.5166667
        value: 7.892709
        inSlope: 0.67654413
        outSlope: -6.2507553
        tangentMode: 1
      - time: 2.1
        value: 7.53415
        inSlope: 4.867724
        outSlope: -0.8916481
        tangentMode: 1
      - time: 2.7166667
        value: 7.7672977
        inSlope: 2.0912552
        outSlope: -3.977299
        tangentMode: 1
      - time: 3.1166666
        value: 7.640235
        inSlope: 3.0338643
        outSlope: -1.662755
        tangentMode: 1
      - time: 3.5
        value: 7.2965903
        inSlope: 0
        outSlope: 0
        tangentMode: 0
      m_PreInfinity: 2
      m_PostInfinity: 2
      m_RotationOrder: 4
    attribute: m_Intensity
    path: 
    classID: 108
    script: {fileID: 0}
  m_PPtrCurves: []
  m_SampleRate: 60
  m_WrapMode: 0
  m_Bounds:
    m_Center: {x: 0, y: 0, z: 0}
    m_Extent: {x: 0, y: 0, z: 0}
  m_ClipBindingConstant:
    genericBindings:
    - path: 0
      attribute: 898800009
      script: {fileID: 0}
      classID: 108
      customType: 25
      isPPtrCurve: 0
    pptrCurveMapping: []
  m_AnimationClipSettings:
    serializedVersion: 2
    m_AdditiveReferencePoseClip: {fileID: 0}
    m_AdditiveReferencePoseTime: 0
    m_StartTime: 0
    m_StopTime: 3.5
    m_OrientationOffsetY: 0
    m_Level: 0
    m_CycleOffset: 0
    m_HasAdditiveReferencePose: 0
    m_LoopTime: 1
    m_LoopBlend: 1
    m_LoopBlendOrientation: 0
    m_LoopBlendPositionY: 0
    m_LoopBlendPositionXZ: 0
    m_KeepOriginalOrientation: 0
    m_KeepOriginalPositionY: 1
    m_KeepOriginalPositionXZ: 0
    m_HeightFromFeet: 0
    m_Mirror: 0
  m_EditorCurves:
  - curve:
      serializedVersion: 2
      m_Curve:
      - time: 0
        value: 7.2965903
        inSlope: 0
        outSlope: 0
        tangentMode: 0
      - time: 0.18333334
        value: 7.6953325
        inSlope: 11.798784
        outSlope: -7.213303
        tangentMode: 1
      - time: 0.5
        value: 7.272959
        inSlope: 2.6768968
        outSlope: -2.9295917
        tangentMode: 1
      - time: 0.9
        value: 7.121967
        inSlope: 5.7084
        outSlope: -4.9804864
        tangentMode: 1
      - time: 1.2333333
        value: 7.500719
        inSlope: 2.948224
        outSlope: -9.027265
        tangentMode: 1
      - time: 1.5166667
        value: 7.892709
        inSlope: 0.67654413
        outSlope: -6.2507553
        tangentMode: 1
      - time: 2.1
        value: 7.53415
        inSlope: 4.867724
        outSlope: -0.8916481
        tangentMode: 1
      - time: 2.7166667
        value: 7.7672977
        inSlope: 2.0912552
        outSlope: -3.977299
        tangentMode: 1
      - time: 3.1166666
        value: 7.640235
        inSlope: 3.0338643
        outSlope: -1.662755
        tangentMode: 1
      - time: 3.5
        value: 7.2965903
        inSlope: 0
        outSlope: 0
        tangentMode: 0
      m_PreInfinity: 2
      m_PostInfinity: 2
      m_RotationOrder: 4
    attribute: m_Intensity
    path: 
    classID: 108
    script: {fileID: 0}
  m_EulerEditorCurves: []
  m_HasGenericRootTransform: 0
  m_HasMotionFloatCurves: 0
  m_GenerateMotionCurves: 0
  m_Events: []
